[
	[ "Playfield", "X", "Y", "Z", "RotX", "RotY", "RotZ", "RotW" ],
	[ 950, 52.599, 14.7438, 56.8706, 0, 0.0175757, 0, 0.999846 ],
	[ 954, 239.716, 5.45679, 72.7287, 0, 0.0406042, 0, 0.999175 ],
	[ 4530, 292.407, 194.145, 579.984, 0, -0.00270383, 0, 0.999996 ],
	[ 4563, 38.9367, 6.005, 47.9282, 0, -0.681125, 0, 0.732167 ],
	[ 4571, 53.4646, 6.025, 81.99, 0, -0.709719, 0, 0.704485 ],
	[ 2064, 191.081, 5.01, 161.964, 0, 0.999996, 0, 0.0028543 ],
	[ 1186, 174.903, 5.01, 110.178, 0, -0.00201499, 0, 0.999998 ],
	[ 1187, 205.01, 5.01, 122.1, 0, 0.00296621, 0, 0.999996 ],
	[ 1193, 201.016, 5.01, 114.01, 0, 0.00295764, 0, 0.999996 ],
	[ 127, 66.2701, 115.615, 318.981, 0, 0.718333, 0, 0.6957 ],
	[ 1001, 188.969, 0.011, 146.507, 0, 0.999996, 0, 0.0027849 ],
	[ 1002, 194.983, 0.011, 140.124, 0, -0.015168, 0, 0.999885 ],
	[ 1003, 173.022, 0.011, 138.164, 0, 0.00323308, 0, 0.999995 ],
	[ 1005, 171.072, 0.011, 177.882, 0, 0.999877, 0, 0.0156857 ],
	[ 1011, 186.97, 0.011, 178.895, 0, 0.00354725, 0, 0.999994 ],
	[ 1012, 168.487, 0.011, 189.201, 0, 0.699832, 0, 0.714308 ],
	[ 125, 350.967, 58.1331, 148.74, 0, 0.12057, 0, 0.992705 ],
	[ 1021, 150.201, 0.011, 161.115, 0, 0.703159, 0, 0.711032 ],
	[ 1031, 210.831, 4.88076, 166.687, 0, 0.00145002, 0, 0.999999 ],
	[ 1136, 151.047, 5.01, 187.67, 0, -0.0035364, 0, 0.999994 ],
	[ 1137, 151.01, 5.01, 182.435, 0, 0.00306897, 0, 0.999995 ],
	[ 1180, 201.012, 3.01, 156.149, 0, -0.00694799, 0, 0.999976 ],
	[ 1181, 186.906, 5.01, 154.928, 0, -0.00445324, 0, 0.99999 ],
	[ 1182, 187.01, 6.12768, 154.148, 0, -0.00285365, 0, 0.999996 ],
	[ 1183, 186.918, 5.01, 118.556, 0, -0.00623958, 0, 0.999981 ],
	[ 1184, 213.025, 5.01, 98.7477, 0, -0.0296128, 0, 0.999561 ],
	[ 1185, 204.907, 5.01, 111.115, 0, 0.00200362, 0, 0.999998 ],
	[ 1189, 180.977, 5.01, 120.321, 0, -0.00139075, 0, 0.999999 ],
	[ 1190, 179.016, 5.01, 121.722, 0, -0.0113955, 0, 0.999935 ],
	[ 1191, 170.914, 5.01, 130.391, 0, -0.00639763, 0, 0.99998 ],
	[ 1192, 168.989, 5.01, 136.392, 0, -0.0114063, 0, 0.999935 ],
	[ 1211, 139.047, 0.011, 101.52, 0, -0.00141077, 0, 0.999999 ],
	[ 1231, 160.763, 5.01, 256.99, 0, 0.704719, 0, 0.709487 ],
	[ 1232, 154.157, 5.01, 236.968, 0, 0.704726, 0, 0.70948 ],
	[ 1233, 106.053, 5.01, 206.99, 0, 0.704732, 0, 0.709474 ],
	[ 1241, 120.399, 5.01, 215.139, 0, 0.711801, 0, 0.702381 ],
	[ 1242, 132.872, 5.01, 211.057, 0, 0.708315, 0, 0.705897 ],
	[ 1243, 134.682, 5.00576, 181.031, 0, 0.702369, 0, 0.711813 ],
	[ 1251, 174.97, 5.13316, 135.187, 0, 0.0037472, 0, 0.999993 ],
	[ 1321, 202.453, 0.011, 264.92, 0, 0.705941, 0, 0.708271 ],
	[ 1322, 211.128, 0.011, 190.882, 0, 1, 0, 0.000434936 ],
	[ 1323, 119.014, 0.011, 284.927, 0, 1, 0, 0.000420325 ],
	[ 1324, 155.071, 0.011, 287.487, 0, 0.999792, 0, 0.0204199 ],
	[ 1325, 155.059, 0.011, 281.326, 0, 0.999677, 0, 0.0254192 ],
	[ 1328, 280.976, 0.011, 272.481, 0, -0.00458221, 0, 0.99999 ],
	[ 1329, 125.14, 0.011, 207.936, 0, 0.999697, 0, -0.024616 ],
	[ 1330, 186.964, 0.011, 177.883, 0, 0.999989, 0, -0.004638 ],
	[ 1405, 181.034, 0.011, 176.985, 0, -0.000807382, 0, 1 ],
	[ 1406, 188.943, 0.011, 162.811, 0, -0.00421954, 0, 0.999991 ],
	[ 1407, 187.01, 0.011, 137.178, 0, -0.004207, 0, 0.999991 ],
	[ 1423, 229.214, 5.01, 147.559, 0, 0.999943, 0, -0.010719 ],
	[ 1501, 176.958, 10.01, 193.71, 0, -0.0250819, 0, 0.999685 ],
	[ 1502, 197.148, 10.01, 168.246, 0, 1, 0, -0.00072205 ],
	[ 1503, 205.243, 5.01, 142.043, 0, 0.999991, 0, 0.00425157 ],
	[ 1504, 193.109, 35.01, 177.52, 0, 0.999899, 0, 0.0142452 ],
	[ 1505, 189.197, 5.01, 181.418, 0, 0.999983, 0, -0.00574455 ],
	[ 1506, 229.501, 5.01, 128.931, 0, -0.713897, 0, 0.700251 ],
	[ 1507, 199.141, 5.01, 119.936, 0, 0.999618, 0, 0.0276368 ],
	[ 1602, 194.975, 5.01, 161.604, 0, 0.999987, 0, 0.00511182 ],
	[ 1603, 207.138, 5.01, 169.888, 0, 0.999966, 0, -0.00829168 ],
	[ 1604, 180.911, 5.01, 141.908, 0, 0.999995, 0, 0.00329525 ],
	[ 1611, 153.093, 5.01, 169.687, 0, 0.999911, 0, 0.013306 ],
	[ 1612, 185.047, 5.01, 128.847, 0, 0.999965, 0, 0.00831049 ],
	[ 1613, 201.01, 5.01, 129.403, 0, 0.999965, 0, 0.00831561 ],
	[ 1614, 187.22, 5.01, 89.4919, 0, 1, 0, -0.000107139 ],
	[ 1826, 219.206, 5.01, 178.971, 0, 0.999949, 0, -0.0101104 ],
	[ 1827, 204.919, 5.01, 168.089, 0, 0.0443097, 0, 0.999018 ],
	[ 1833, 103.026, 16.6104, 191.531, 0, 0.999952, 0, 0.00983625 ],
	[ 1836, 296.883, 8.86164, 29.6119, 0, 0.0143652, 0, 0.999897 ],
	[ 1840, 242.932, 5.01, 126.419, 0, 0.00786396, 0, 0.999969 ],
	[ 1846, 147.044, 9.01, 71.9271, 0, -0.00367481, 0, 0.999993 ],
	[ 1866, 132.88, 5.01005, 261.517, 0, 0.999949, 0, 0.0100769 ],
	[ 1886, 225.132, 14.0091, 161.628, 0, -0.0142696, 0, 0.999898 ],
	[ 1887, 196.962, 5.01, 268.249, 0, 0.000797267, 0, 1 ],
	[ 1891, 156.99, 5.01, 241.482, 0, 0.999988, 0, 0.00497579 ],
	[ 1892, 213.154, 5.01, 238.939, 0, 1, 0, -0.0000356892 ],
	[ 1893, 214.94, 5.01, 219.723, 0, 0.999725, 0, -0.0234452 ],
	[ 1894, 212.99, 5.01, 241.966, 0, 0.999999, 0, 0.00153958 ],
	[ 1901, 147.083, 0.011, 253.363, 0, 0.999829, 0, -0.018489 ],
	[ 1902, 159.1, 0.011, 217.307, 0, 0.999828, 0, -0.0185296 ],
	[ 1913, 156.95, 20.01, 98.5258, 0, -0.0106568, 0, 0.999943 ],
	[ 1931, 172.946, 24.0112, 10.2545, 0, -0.00225885, 0, 0.999997 ],
	[ 1941, 206.972, 39.8102, 386.593, 0, 0.999967, 0, 0.00808018 ],
	[ 4572, 52.8958, 6.005, 81.8713, 0, -0.710842, 0, 0.703352 ],
	[ 2001, 210.986, 5.01, 156.882, 0, -0.00916945, 0, 0.999958 ],
	[ 2002, 229.023, 5.00998, 164.283, 0, 0.000828234, 0, 1 ],
	[ 2003, 196.824, 5.00998, 160.065, 0, 0.0158251, 0, 0.999875 ],
	[ 2004, 217.161, 5.00998, 156.626, 0, -0.0191805, 0, 0.999816 ],
	[ 2005, 192.9, 5.01, 164.027, 0, -0.00917521, 0, 0.999958 ],
	[ 2010, 194.893, 5.01002, 188.183, 0, 0.0158287, 0, 0.999875 ],
	[ 2011, 205.018, 5.01, 180.133, 0, 0.00582839, 0, 0.999983 ],
	[ 4102, 163.01, 6.01046, 167.767, 0, -0.0139303, 0, 0.999903 ],
	[ 4107, 310.945, 1.33818, 66.7842, 0, -0.688132, 0, 0.725585 ],
	[ 4121, 983.042, 226.011, 126.683, 0, -0.0188802, 0, 0.999822 ],
	[ 4211, 133.018, 20.01, 24.6687, 0, 0.0524584, 0, 0.998623 ],
	[ 4212, 58.8452, 50.0081, 85.01, 0, 0.713222, 0, 0.700938 ],
	[ 4213, 236.377, 30.01, 28.4231, 0, 0.0175613, 0, 0.999846 ],
	[ 4214, 237.311, 30.0093, 20.2715, 0, -0.00718214, 0, 0.999974 ],
	[ 4215, 313.135, 30.01, 52.6006, 0, -0.705927, 0, 0.708285 ],
	[ 4220, 132.983, 20.01, 24.1518, 0, -0.00530372, 0, 0.999986 ],
	[ 4221, 58.51, 50.0081, 85.3602, 0, 0.713653, 0, 0.700499 ],
	[ 4222, 97.023, 30.01, 29.3193, 0, -0.000283829, 0, 1 ],
	[ 4223, 237.416, 30.0093, 20.3871, 0, -0.00636859, 0, 0.99998 ],
	[ 4224, 313.046, 30.01, 52.8441, 0, -0.708908, 0, 0.705301 ],
	[ 4327, 195.01, 9.745, 164.505, 0, -0.0015074, 0, 0.999999 ],
	[ 4350, 105.119, 6.02, 63.01, 0, 0.700733, 0, 0.713423 ],
	[ 4354, 183.255, 6.02, 152.61, 0, 0.999974, 0, -0.00725022 ],
	[ 4355, 93.4726, 6.025, 47.9678, 0, -0.708194, 0, 0.706018 ],
	[ 4567, 54.8186, 6.015, 47.99, 0, -0.68099, 0, 0.732293 ],
	[ 4564, 39.5635, 6.015, 47.6366, 0, -0.662594, 0, 0.748979 ],
	[ 4565, 39.9181, 6.005, 47.9487, 0, -0.672455, 0, 0.740138 ],
	[ 4568, 54.4477, 6.00999, 47.99, 0, -0.669926, 0, 0.742427 ],
	[ 4569, 53.221, 6.00968, 48.2892, 0, -0.720208, 0, 0.693758 ],
	[ 4573, 53.0881, 6.015, 81.9807, 0, -0.715463, 0, 0.698651 ],
	[ 4575, 181.965, 6.735, 184.35, 0, 0.999934, 0, 0.0114691 ],
	[ 4576, 200.111, 6.135, 200.816, 0, 0.999979, 0, 0.00645688 ],
	[ 4577, 194.408, 6.125, 174.041, 0, 0.999979, 0, 0.00643975 ],
	[ 4704, 192.01, 9.015, 153.866, 0, -0.703749, 0, 0.710449 ],
	[ 4805, 194.673, 61.7747, 140.842, 0, 0.00434104, 0, 0.999991 ],
	[ 4885, 499.062, 5.01781, 124.833, 0, 0.999988, 0, 0.00488737 ],
	[ 6003, 399.594, 6.19169, 144.639, 0, 0.42831, 0, 0.903632 ],
	[ 6014, 179.427, 23.3098, 200.453, 0, 0.729419, 0, 0.684067 ],
	[ 6055, 280.459, 135.315, 144.551, 0, 0.613931, 0, 0.78936 ],
	[ 4313, 304.914, 78.01, 467.186, 0, 0.896235, 0, 0.443579 ],
	[ 4582, 937.511, 47.025, 862.554, 0, 0.563998, 0, 0.825776 ]
]