{
  "IP": [ "0.0.0.0", "127.0.0.1", "127.0.0.1" ],
  "Ports": [ 7012, 7501, 7500, 6996 ],
  "SqlLog": true,
  "LogChat": false,
  "Motd": "Welcome CellAO {0} please visit our Forums at null http://www.aocell.info",
  //Choose your SQL Databse Type here, MySql, MsSql, PostgreSQL
  "SqlType": "MySql",
  "ConnectionString": [ "database=cellao;server=localhost;uid=cellaodbuser;pwd=password", "Data", "Source=localhost;Inital", "Catalog=cellao;UserID=cellaodbuser;Password=password;Trusted_Connection=false", "Server=localhost;User", "Id=cellaodbuser;Password=password;Database=cellao" ],
  //This area is for Locale Settings, en = english, gr = german, ro = Romanian more languages will be supported later, Default = en
  "Locale": "en",
  //This area Sets what Start Zone to use 1 = Starter Island, 2 = New Player Experiance, 3 = TODO: Random Backyard, 4 = TODO: Space Station Start Area  so right now only 1,2 work.
  "StartArea": 2,
  "UseIRCRelay": true,
  "IRCServer": "irc.aocell.info",
  "RelayBotNick": "CellAO",
  "RelayBotIdent": "CellAO",
  "IRCChannel": "#CellAORelay",
  "RelayIngameChannel": "CellAO-Relay",
  "WebHostName": "test.aocell.info",
  "WebHostPort": 8181,
  "WebHostRoot": "htdocs",
  "WebCoreRepo": "https://github.com/CellAO/CellAO-WebCore/archive/master.zip",
  "WebHostDefaultPage": "index.php",
  "WebHostPhpPath": "php",
  "WebHostMysqlPath": "mysql"
}